<svg xmlns="http://www.w3.org/2000/svg" width="40.712" height="21.374" viewBox="0 0 40.712 21.374">
  <g id="Group_7231" data-name="Group 7231" transform="translate(0 0)">
    <path id="Path_5007" data-name="Path 5007" d="M-1225.125-212.668l-6.239-1.709-.007-.01-3.736-4.889a4.587,4.587,0,0,0-3.616-1.782h-12.353a4.489,4.489,0,0,0-3.829,2.121l-2.9,4.623-.01,0-3.276,1.5a3.611,3.611,0,0,0-2.1,3.292v2.716a3.592,3.592,0,0,0,1.037,2.566,3.588,3.588,0,0,0,2.545,1.079h1.031l.007.028a4.607,4.607,0,0,0,3.3,3.3,4.608,4.608,0,0,0,5.612-3.3l.007-.028h14.1l.007.028a4.606,4.606,0,0,0,3.3,3.3,4.609,4.609,0,0,0,5.612-3.3l.007-.028h.565a3.616,3.616,0,0,0,3.581-3.643v-2.382A3.625,3.625,0,0,0-1225.125-212.668Zm-26.858,10.486a2.982,2.982,0,0,1-2.124.88h0a3.009,3.009,0,0,1-3-3,3.007,3.007,0,0,1,3-3h0a3.007,3.007,0,0,1,3,3A2.984,2.984,0,0,1-1251.982-202.182Zm20.9.88a3.009,3.009,0,0,1-3-3,3.008,3.008,0,0,1,3-3,3.007,3.007,0,0,1,3,3A3.007,3.007,0,0,1-1231.083-201.3Zm7.016-5.5a2,2,0,0,1-.571,1.436,2,2,0,0,1-1.414.607h-.452l0-.033a4.578,4.578,0,0,0-4.071-4.071,4.609,4.609,0,0,0-5.082,4.071l0,.033h-13.866l0-.033a4.578,4.578,0,0,0-4.071-4.071,4.567,4.567,0,0,0-3.384.983,4.573,4.573,0,0,0-1.7,3.088l0,.033h-.925a2,2,0,0,1-1.414-.613,2,2,0,0,1-.565-1.432v-.037h.008v-2.679a2.009,2.009,0,0,1,1.166-1.839l3.493-1.6a.786.786,0,0,0,.343-.3l3.025-4.831a2.935,2.935,0,0,1,2.474-1.371h12.353a2.973,2.973,0,0,1,2.359,1.151l3.9,5.107a.781.781,0,0,0,.423.287l6.511,1.78a2.009,2.009,0,0,1,1.474,1.95Z" transform="translate(1263.189 221.058)"/>
    <path id="Path_5008" data-name="Path 5008" d="M-1226.342-208.545h-17.26a.846.846,0,0,0-.845.846.845.845,0,0,0,.845.845h17.26a.845.845,0,0,0,.845-.845A.846.846,0,0,0-1226.342-208.545Z" transform="translate(1253.767 214.767)"/>
  </g>
</svg>
