<svg xmlns="http://www.w3.org/2000/svg" width="133.884" height="188.975" viewBox="0 0 133.884 188.975">
  <g id="Group_7263" data-name="Group 7263" transform="translate(3.5 3.5)">
    <path id="Path_4966" data-name="Path 4966" d="M718.674,2220.2c-.15-36.274-28.394-65.67-63.442-65.67s-63.442,29.4-63.442,65.67c0,37.145,39.671,91.685,56.217,112.819a9.049,9.049,0,0,0,14.262.016C678.919,2311.929,718.843,2257.358,718.674,2220.2Z" transform="translate(-591.79 -2154.534)" fill="#fff" stroke="#f4f4f4" stroke-linecap="round" stroke-miterlimit="10" stroke-width="7"/>
    <path id="Path_4965" data-name="Path 4965" d="M632.887,2177.5a18.128,18.128,0,1,0-18.128,18.129A18.129,18.129,0,0,0,632.887,2177.5Z" transform="translate(-551.317 -2114.062)" fill="none" stroke="#f2f1f1" stroke-linecap="round" stroke-miterlimit="10" stroke-width="5"/>
  </g>
</svg>
