<svg xmlns="http://www.w3.org/2000/svg" width="69" height="69" viewBox="0 0 69 69">
  <g id="Group_7263" data-name="Group 7263" transform="translate(-1338 -1951)">
    <path id="Rectangle_2817" data-name="Rectangle 2817" d="M20,0H49A20,20,0,0,1,69,20V49A20,20,0,0,1,49,69H0a0,0,0,0,1,0,0V20A20,20,0,0,1,20,0Z" transform="translate(1338 1951)" fill="#f1f4f7"/>
    <g id="bluetooth-settings" transform="translate(1110.925 1616)">
      <g id="settings-bluetooth">
        <path id="Path_5002" data-name="Path 5002" d="M168.525,10.974,157.552,0h-1.925V14.632L146.77,5.776l-2.7,2.7,10.781,10.781L144.075,30.034l2.7,2.7,8.856-8.856V38.5h1.925l10.974-10.974-8.278-8.278Zm-9.049-3.658,3.658,3.658-3.658,3.658Zm3.658,20.215-3.658,3.658V23.873Z" transform="translate(105.85 351.236)" fill="#c91019"/>
      </g>
    </g>
  </g>
</svg>
