<svg xmlns="http://www.w3.org/2000/svg" xmlns:xlink="http://www.w3.org/1999/xlink" width="40" height="40" viewBox="0 0 40 40">
  <defs>
    <filter id="Ellipse_610" x="0" y="0" width="40" height="40" filterUnits="userSpaceOnUse">
      <feOffset dy="1" input="SourceAlpha"/>
      <feGaussianBlur stdDeviation="1" result="blur"/>
      <feFlood flood-opacity="0.102"/>
      <feComposite operator="in" in2="blur"/>
      <feComposite in="SourceGraphic"/>
    </filter>
  </defs>
  <g id="Group_7263" data-name="Group 7263" transform="translate(-22 -313)">
    <g transform="matrix(1, 0, 0, 1, 22, 313)" filter="url(#Ellipse_610)">
      <circle id="Ellipse_610-2" data-name="Ellipse 610" cx="17" cy="17" r="17" transform="translate(3 2)" fill="#fff"/>
    </g>
    <path id="Path_4973" data-name="Path 4973" d="M69.084,7.285a.5.5,0,0,0,.057-.7,3.394,3.394,0,1,1,5.174,0,.5.5,0,0,0,.757.644,4.388,4.388,0,1,0-6.688,0A.5.5,0,0,0,69.084,7.285Z" transform="translate(-30.563 321)" fill="#c91019"/>
    <path id="Path_4974" data-name="Path 4974" d="M94.339,26.034A2.3,2.3,0,0,1,96.6,27.68a2.346,2.346,0,1,0-4.509-.042A2.3,2.3,0,0,1,94.339,26.034Z" transform="translate(-53.188 298.377)" fill="#c91019"/>
    <path id="Path_4975" data-name="Path 4975" d="M65.093,62.859a2.337,2.337,0,0,0-2.238-2.191.613.613,0,0,1-.48-.272,1.776,1.776,0,0,0-1.552-.861,2.569,2.569,0,0,0-.865.16.2.2,0,0,1-.069.012.208.208,0,0,1-.179-.1,1.814,1.814,0,0,0-1.641-.978,2.625,2.625,0,0,0-.791.129.369.369,0,0,1-.083.009.217.217,0,0,1-.218-.2v-4a1.366,1.366,0,1,0-2.732,0V61.6a.648.648,0,0,1-.656.668.633.633,0,0,1-.542-.3l-.657-1.017a1.3,1.3,0,0,0-1.128-.678,1.376,1.376,0,0,0-1.212,2.1l5.174,9.91a.205.205,0,0,0,.175.114h7.266a.2.2,0,0,0,.2-.192l.182-2.965a.2.2,0,0,1,.032-.1C64.876,66.4,65.393,64.644,65.093,62.859Z" transform="translate(-14.501 272.204)" fill="#c91019"/>
  </g>
</svg>
