<svg xmlns="http://www.w3.org/2000/svg" width="73.115" height="61.024" viewBox="0 0 73.115 61.024">
  <g id="Group_7048" data-name="Group 7048" transform="translate(-1216 -2691)">
    <g id="Group_7046" data-name="Group 7046" transform="translate(579)">
      <path id="Path_4942" data-name="Path 4942" d="M2807.5,2744.446c-15.6,0-28.242,13.658-28.242,30.514s12.646,30.511,28.242,30.511a26.237,26.237,0,0,0,6.039-.7l0,.021a64.263,64.263,0,0,0,37.86-26.713,5.538,5.538,0,0,0,.97-3.152,5.616,5.616,0,0,0-.642-2.605c-.223-.328-.449-.656-.672-.985a64.223,64.223,0,0,0-37.169-26.13l0,.024A26.119,26.119,0,0,0,2807.5,2744.446Z" transform="translate(-2142.254 -53.446)" fill="#484848"/>
    </g>
    <g id="Group_7047" data-name="Group 7047" transform="translate(2 181.512)">
      <g id="Group_6774" data-name="Group 6774" transform="translate(1235.7 2536.039)">
        <g id="Group_6773" data-name="Group 6773" transform="translate(0 0)">
          <path id="Path_4718" data-name="Path 4718" d="M11.954,153.864a1.255,1.255,0,0,1-1.334,0L0,147.2v8.858a3.384,3.384,0,0,0,3.335,3.428H19.264a3.384,3.384,0,0,0,3.335-3.428V147.2Z" transform="translate(0 -147.2)" fill="#1c1c1c"/>
        </g>
      </g>
      <g id="Group_6776" data-name="Group 6776" transform="translate(1235.8 2531.675)">
        <g id="Group_6775" data-name="Group 6775">
          <path id="Path_4719" data-name="Path 4719" d="M21.219,57.088H5.279a3.27,3.27,0,0,0-3.231,2.43l11.214,6.347,11.187-6.347A3.27,3.27,0,0,0,21.219,57.088Z" transform="translate(-2.048 -57.088)" fill="#1c1c1c"/>
        </g>
      </g>
    </g>
  </g>
</svg>
