<svg xmlns="http://www.w3.org/2000/svg" width="20" height="20" viewBox="0 0 20 20">
  <g id="Group_7125" data-name="Group 7125" transform="translate(-222.738 -842.776)">
    <g id="Group_7122" data-name="Group 7122" transform="translate(231.624 847.135)">
      <path id="Path_4989" data-name="Path 4989" d="M231.7,846.875a1.216,1.216,0,0,1-2.431,0A1.216,1.216,0,0,1,231.7,846.875Zm-2.283,1.928v7.337h2.135V848.8Z" transform="translate(-229.266 -845.675)" fill="#cecece"/>
    </g>
    <g id="Group_7123" data-name="Group 7123" transform="translate(222.738 842.776)">
      <path id="Path_4990" data-name="Path 4990" d="M232.739,862.776a10,10,0,1,1,10-10A10.011,10.011,0,0,1,232.739,862.776Zm0-18.385a8.385,8.385,0,1,0,8.385,8.385A8.394,8.394,0,0,0,232.739,844.391Z" transform="translate(-222.738 -842.776)" fill="#cecece"/>
    </g>
  </g>
</svg>
