<svg xmlns="http://www.w3.org/2000/svg" width="29.129" height="28.605" viewBox="0 0 29.129 28.605">
  <g id="Group_2273" data-name="Group 2273" transform="translate(1 1)">
    <path id="Path_4202" data-name="Path 4202" d="M1326.962-2621.025h27.129s-3.07,12.847-3.483,14.567-.327,3.941-4.551,3.941h-11.54c-2.612,0-3.614-.915-4.18-3.44S1326.962-2621.025,1326.962-2621.025Z" transform="translate(-1326.962 2629.122)" fill="none" stroke="#b6b6b6" stroke-linejoin="round" stroke-miterlimit="10" stroke-width="2"/>
    <path id="Path_4203" data-name="Path 4203" d="M1344.357-2616.394v-6.757a4.943,4.943,0,0,0-4.985-4.81,4.943,4.943,0,0,0-4.986,4.9c0,.151.022,6.669.022,6.669" transform="translate(-1325.72 2627.961)" fill="none" stroke="#b6b6b6" stroke-linejoin="round" stroke-miterlimit="10" stroke-width="2"/>
  </g>
</svg>
