<svg xmlns="http://www.w3.org/2000/svg" width="23.199" height="30.226" viewBox="0 0 23.199 30.226">
  <g id="Group_7266" data-name="Group 7266" transform="translate(-1709 -34.032)">
    <path id="Path_4919" data-name="Path 4919" d="M329.366,806.774a10.479,10.479,0,0,1,10.6,10.353,10.146,10.146,0,0,1-2.1,6.186" transform="translate(1391.232 -771.742)" fill="none" stroke="#fff" stroke-linecap="round" stroke-linejoin="round" stroke-width="2"/>
    <path id="Path_4920" data-name="Path 4920" d="M334.523,813.209a3.313,3.313,0,1,1-3.314-3.312A3.312,3.312,0,0,1,334.523,813.209Z" transform="translate(1389.39 -767.824)" fill="none" stroke="#fff" stroke-linecap="round" stroke-linejoin="round" stroke-width="2"/>
    <line id="Line_493" data-name="Line 493" y1="11.285" x2="8.501" transform="translate(1720.6 51.572)" fill="none" stroke="#fff" stroke-linecap="round" stroke-linejoin="round" stroke-width="2"/>
    <path id="Path_4921" data-name="Path 4921" d="M335.264,806.774a10.479,10.479,0,0,0-10.6,10.353,10.145,10.145,0,0,0,2.1,6.186" transform="translate(1385.335 -771.742)" fill="none" stroke="#fff" stroke-linecap="round" stroke-linejoin="round" stroke-width="2"/>
    <line id="Line_494" data-name="Line 494" x1="8.5" y1="11.285" transform="translate(1712.1 51.572)" fill="none" stroke="#fff" stroke-linecap="round" stroke-linejoin="round" stroke-width="2"/>
  </g>
</svg>
