<svg xmlns="http://www.w3.org/2000/svg" width="28.079" height="36.237" viewBox="0 0 28.079 36.237">
  <g id="Group_7234" data-name="Group 7234" transform="translate(0 0)">
    <path id="Path_5014" data-name="Path 5014" d="M-420.571-183.948a.913.913,0,0,0-.1.129.821.821,0,0,0-.074.144.675.675,0,0,0-.05.159.972.972,0,0,0-.02.164.879.879,0,0,0,.249.6.87.87,0,0,0,.6.244.871.871,0,0,0,.6-.244.875.875,0,0,0,.249-.6.872.872,0,0,0-.249-.6A.882.882,0,0,0-420.571-183.948Z" transform="translate(427.979 215.132)"/>
    <path id="Path_5015" data-name="Path 5015" d="M-413.383-183.684a.822.822,0,0,0-.074-.144,1.475,1.475,0,0,0-.1-.129.869.869,0,0,0-.766-.229.958.958,0,0,0-.16.045,1.388,1.388,0,0,0-.144.08.872.872,0,0,0-.129.1.817.817,0,0,0-.1.129.765.765,0,0,0-.075.144.629.629,0,0,0-.049.159.881.881,0,0,0-.02.164.874.874,0,0,0,.249.6,1.375,1.375,0,0,0,.129.1.808.808,0,0,0,.144.075.656.656,0,0,0,.16.05.922.922,0,0,0,.169.015.87.87,0,0,0,.6-.244.879.879,0,0,0,.249-.6.968.968,0,0,0-.02-.164A.654.654,0,0,0-413.383-183.684Z" transform="translate(425.057 215.141)"/>
    <path id="Path_5016" data-name="Path 5016" d="M-407.215-217.922a.81.81,0,0,0-.7-.533l-.036,0H-420.13v-3.255h12.183a.806.806,0,0,0,.722-.508,1.045,1.045,0,0,0-.08-.993l-12.825-19.2v-3.084a.881.881,0,0,0-.819-.931c-1.643,0-3.275.975-4.844,2.9a31.613,31.613,0,0,0-4,7.2c-1.933,4.734-3.458,9.92-3.458,13.643a.881.881,0,0,0,.819.931h10.677v3.294H-434.4a.8.8,0,0,0-.732.53,1.04,1.04,0,0,0,.116,1.01l.024.032c.636,2.332,3.05,6.7,7.692,6.7h11.425a8,8,0,0,0,5.29-2.274,20.611,20.611,0,0,0,3.252-4.251.835.835,0,0,0,.108-.4A1.03,1.03,0,0,0-407.215-217.922Zm-12.916-21.422,10.537,15.771H-420.13Zm-11.469,15.73.007-.127c.221-3.539,1.61-7.73,3.269-11.789,1.852-4.535,4.374-8.142,6.411-8.853l.158-.055v20.824Zm19.873,9.906a6.375,6.375,0,0,1-4.152,1.834H-427.3c-3.528,0-5.208-3.2-5.8-4.712h23.7A16.042,16.042,0,0,1-411.726-213.708Z" transform="translate(435.215 246.42)"/>
  </g>
</svg>
