<svg xmlns="http://www.w3.org/2000/svg" width="26" height="26" viewBox="0 0 26 26">
  <g id="Group_7265" data-name="Group 7265" transform="translate(-627 -1304)">
    <g id="Rectangle_2376" data-name="Rectangle 2376" transform="translate(627 1304)" fill="#fff" stroke="#e1e1e1" stroke-width="1">
      <rect width="26" height="26" rx="13" stroke="none"/>
      <rect x="0.5" y="0.5" width="25" height="25" rx="12.5" fill="none"/>
    </g>
    <path id="Path_4548" data-name="Path 4548" d="M1596.14,1952.239l-3.657-3.625-1.621,1.621,5.282,5.109,7.668-6.766-1.636-1.621Z" transform="translate(-957.003 -633.359)" fill="#c91019"/>
  </g>
</svg>
