<svg xmlns="http://www.w3.org/2000/svg" width="25.362" height="33.215" viewBox="0 0 25.362 33.215">
  <path id="Path_5021" data-name="Path 5021" d="M-6.342-227.531l-4.987-2.214a1.077,1.077,0,0,1-.638-.986v-1.417l.038-.03a7.131,7.131,0,0,0,2.714-5.615v-1.986l.051-.028a1.68,1.68,0,0,0,.865-1.467v-.187a7.2,7.2,0,0,0-7.179-7.179h-1.835a7.2,7.2,0,0,0-7.179,7.179v1.7a1.71,1.71,0,0,0,.647,1.364,1.59,1.59,0,0,0,.217.14l.053.028v.439a7.128,7.128,0,0,0,2.714,5.615l.038.03v1.418a1.077,1.077,0,0,1-.639.983l-4.986,2.217a4.437,4.437,0,0,0-2.629,4.046v7.279a.752.752,0,0,0,.235.529.778.778,0,0,0,.542.209.757.757,0,0,0,.74-.74v-7.277c0-.1.007-.2.018-.306l.023-.206,2.444,2.446a1.993,1.993,0,0,1,.584,1.41v3.937a.76.76,0,0,0,.74.779.755.755,0,0,0,.777-.74v-3.978A3.51,3.51,0,0,0-24-222.626l-2.809-2.808.068-.071a2.885,2.885,0,0,1,.911-.64l4.965-2.207.049.048,3.664,3.665v8.432a.76.76,0,0,0,.74.779.757.757,0,0,0,.777-.74v-8.47l3.713-3.713.062.028,4.9,2.179a2.89,2.89,0,0,1,.911.64l.068.071-2.809,2.808a3.509,3.509,0,0,0-1.028,2.482v3.938a.76.76,0,0,0,.74.779h.018a.754.754,0,0,0,.523-.209.754.754,0,0,0,.235-.532v-3.976a1.99,1.99,0,0,1,.585-1.408L-5.271-224l.023.206c.011.1.017.2.018.3v7.28a.752.752,0,0,0,.235.529.768.768,0,0,0,.542.209.757.757,0,0,0,.74-.74v-7.278A4.438,4.438,0,0,0-6.342-227.531Zm-6.8-1.754-3.259,3.26-3.315-3.315.04-.067a2.583,2.583,0,0,0,.366-1.323v-.5l.138.058a7.219,7.219,0,0,0,5.543,0l.138-.058v.5a2.593,2.593,0,0,0,.365,1.323l.039.067Zm-3.254-2.846h-.021l0,0a5.679,5.679,0,0,1-5.639-5.659v-.453l.062-.025a4.947,4.947,0,0,0,1.528-.992.76.76,0,0,0,.021-1.073.758.758,0,0,0-1.051-.042,3.184,3.184,0,0,1-1.311.782l-.114.017-.029-.068a.268.268,0,0,1-.022-.123v-1.692a5.679,5.679,0,0,1,5.661-5.662h1.834a5.679,5.679,0,0,1,5.661,5.661v.187a.153.153,0,0,1-.109.151c-5.2,1.027-7.8-.912-8.685-1.792a.8.8,0,0,0-.541-.205.752.752,0,0,0-.53.237.759.759,0,0,0,0,1.043c2.686,2.687,6.689,2.657,8.837,2.4l.111-.013v1.663A5.679,5.679,0,0,1-16.393-232.13Z" transform="translate(29.076 248.64)"/>
</svg>
