<svg xmlns="http://www.w3.org/2000/svg" width="49" height="48" viewBox="0 0 49 48">
  <g id="Group_7226" data-name="Group 7226" transform="translate(0 0)">
    <g id="Group_7070" data-name="Group 7070" transform="translate(0 0)">
      <rect id="Rectangle_2792" data-name="Rectangle 2792" width="49" height="48" rx="14" transform="translate(0 0)" fill="#f1f4f7"/>
    </g>
    <g id="Group_7219" data-name="Group 7219" transform="translate(9.128 15.564)">
      <path id="Path_5007" data-name="Path 5007" d="M-1233.356-214.482l-4.89-1.339-.006-.008-2.928-3.832a3.6,3.6,0,0,0-2.834-1.4h-9.682a3.518,3.518,0,0,0-3,1.662l-2.271,3.623-.008,0-2.568,1.173a2.831,2.831,0,0,0-1.647,2.58v2.129a2.815,2.815,0,0,0,.813,2.011,2.812,2.812,0,0,0,1.995.845h.808l.005.022a3.611,3.611,0,0,0,2.587,2.587,3.612,3.612,0,0,0,4.4-2.587l.005-.022h11.05l.006.022a3.61,3.61,0,0,0,2.586,2.587,3.612,3.612,0,0,0,4.4-2.587l.006-.022h.443a2.834,2.834,0,0,0,2.807-2.855v-1.867A2.841,2.841,0,0,0-1233.356-214.482Zm-21.05,8.218a2.338,2.338,0,0,1-1.665.69h0a2.358,2.358,0,0,1-2.354-2.355,2.357,2.357,0,0,1,2.354-2.354h0a2.357,2.357,0,0,1,2.354,2.354A2.339,2.339,0,0,1-1254.406-206.264Zm16.381.69a2.359,2.359,0,0,1-2.355-2.355,2.358,2.358,0,0,1,2.355-2.354,2.357,2.357,0,0,1,2.354,2.354A2.357,2.357,0,0,1-1238.025-205.574Zm5.5-4.313a1.568,1.568,0,0,1-.447,1.126,1.564,1.564,0,0,1-1.108.476h-.354l0-.026a3.588,3.588,0,0,0-3.19-3.19,3.612,3.612,0,0,0-3.983,3.19l0,.026h-10.868l0-.026a3.588,3.588,0,0,0-3.19-3.19,3.579,3.579,0,0,0-2.652.77,3.585,3.585,0,0,0-1.331,2.42l0,.026h-.725a1.568,1.568,0,0,1-1.108-.481,1.565,1.565,0,0,1-.443-1.122v-.029h.006v-2.1a1.574,1.574,0,0,1,.914-1.441l2.738-1.251a.615.615,0,0,0,.269-.238l2.371-3.786a2.3,2.3,0,0,1,1.939-1.075h9.682a2.33,2.33,0,0,1,1.849.9l3.053,4a.612.612,0,0,0,.331.225l5.1,1.4a1.575,1.575,0,0,1,1.155,1.528Z" transform="translate(1263.189 221.058)"/>
      <path id="Path_5008" data-name="Path 5008" d="M-1230.257-208.545h-13.528a.663.663,0,0,0-.663.663.663.663,0,0,0,.663.663h13.528a.662.662,0,0,0,.662-.663A.663.663,0,0,0-1230.257-208.545Z" transform="translate(1251.752 213.422)"/>
    </g>
  </g>
</svg>
