<svg xmlns="http://www.w3.org/2000/svg" width="105.906" height="106" viewBox="0 0 105.906 106">
  <path id="Path_4996" data-name="Path 4996" d="M644.339,81.645l3.1-3.151c-3.488-3.432-6.761-6.8-10.238-9.938-.617-.558-2.183-.493-3.14-.185a23,23,0,0,1-27.248-10.165c-1.972-3.423-1.427-4.4,2.463-4.413,3.5-.007,7.01-.091,10.508.035a4.334,4.334,0,0,0,4.2-1.947c1.2-1.739,2.64-3.309,4.13-5.143-1.722-2.131-3.367-4.333-5.217-6.347a3.749,3.749,0,0,0-2.466-.75c-3.686-.078-7.374-.027-11.062-.036-3.88-.009-4.352-.8-2.473-4.117,4.614-8.144,13.862-12.444,23.523-10.937,9.075,1.416,16.9,8.551,18.549,17.444a38.693,38.693,0,0,1,.112,9.565,4.226,4.226,0,0,0,1.28,3.863c3.386,3.235,6.63,6.619,10.115,10.132,7.628-7.675,15.242-15.05,22.438-22.813,1.469-1.584,1.185-4.695,2.057-6.967a7.58,7.58,0,0,1,2.681-3.7c4.412-2.65,9.039-4.94,13.538-7.449,1.5-.838,2.648-.876,3.885.483,1.736,1.907,3.6,3.706,5.465,5.483a2.794,2.794,0,0,1,.489,3.924c-2.539,4.379-5.066,8.769-7.417,13.25a4.721,4.721,0,0,1-4.058,2.79c-4.329.373-7.6,2.374-10.6,5.581-6.038,6.458-12.47,12.549-18.982,19.032,3.57,3.573,7,7.111,10.592,10.474.472.442,1.847.2,2.684-.076a22.829,22.829,0,0,1,27.245,10.053c.6,1.028,1.261,2.625.859,3.464-.357.748-2.135,1.076-3.306,1.127a94.291,94.291,0,0,1-9.951,0A5.11,5.11,0,0,0,693,102.651c-1.07,1.593-2.4,3.01-3.689,4.594,1.532,1.858,2.879,3.744,4.5,5.353A5.344,5.344,0,0,0,697,114.117c3.956.18,7.925.04,11.888.082,2.723.028,3.271.96,2.119,3.416-4.114,8.767-14.765,13.937-24.785,12.03-9.834-1.872-17.874-10.574-18.411-20.151-.137-2.453.348-4.936.426-7.409.029-.918.036-2.149-.5-2.722-3.451-3.7-7.056-7.248-10.755-10.995l-3.021,2.865c1.5,1.358,2.953,2.583,4.306,3.908,2.776,2.719,2.754,2.741.1,5.382a16.9,16.9,0,0,0-1.747,1.769c-1.768,2.382-3.8,3.147-6.665,1.766-.691-.332-2.263.285-2.948.957-6.98,6.839-13.854,13.784-20.768,20.689-5.2,5.193-12.054,5.483-16.921.733-4.932-4.813-4.8-11.938.4-17.2q10.217-10.317,20.55-20.517c1.326-1.305,2.093-2.47,1.045-4.273-1.167-2.011-.47-3.493,1.157-5.042,5.842-5.562,4.312-5.681,10.006-.058C643.069,79.935,643.532,80.641,644.339,81.645Zm15.01,4.487c3.741,3.7,7.419,7.421,11.211,11.026a4.249,4.249,0,0,1,1.371,4.831c-3.139,11.566,3.655,22.286,15.421,24.65,7.357,1.478,16.283-2.389,19.274-8.546-1.005,0-1.894.007-2.783,0-3.408-.03-7.333.978-10.082-.385-2.843-1.411-4.545-5.124-6.746-7.83-.116-.143-.217-.3-.345-.432-1.308-1.338-1.371-2.609-.1-4.1,1.9-2.246,3.5-4.769,5.526-6.889a6.523,6.523,0,0,1,3.92-1.84c3.6-.252,7.23-.085,11.1-.085-4.991-8.016-14.474-11.023-23.557-7.483-2.508.977-4.037.608-5.707-1.294-3.148-3.584-6.442-7.04-9.487-10.345ZM610.732,35.807c4.1,0,7.759-.094,11.409.059a4.712,4.712,0,0,1,3.068,1.267c2.132,2.4,3.993,5.048,5.992,7.573a2.611,2.611,0,0,1,.02,3.711c-1.861,2.281-3.479,4.779-5.491,6.91a6.452,6.452,0,0,1-3.872,1.883c-3.629.256-7.287.087-11.555.087.879,1.173,1.35,1.911,1.926,2.554,5.759,6.428,13.792,8.212,22.687,4.768a3.365,3.365,0,0,1,4.292.956c3.43,3.559,6.968,7.014,10.23,10.279l8.532-8.181c-3.635-3.588-7.169-7.209-10.86-10.66a4.981,4.981,0,0,1-1.608-5.577,19.326,19.326,0,0,0-34.769-15.628Zm26.946,44.337c-2.518,1.512-3.606,3.347-2.089,6.347.4.795-.331,2.67-1.123,3.482-7.4,7.575-14.907,15.042-22.419,22.5-2.11,2.1-3.205,4.462-2.477,7.452,1.68,6.9,8.932,9,14.079,3.956,7.5-7.345,14.887-14.8,22.265-22.268,1.216-1.231,2.4-2.062,4.079-1.214,2.795,1.416,4.618.113,6.2-1.871Zm14.584,8.671a31.049,31.049,0,0,1,2.383-3.092c11.079-11.2,22.262-22.288,33.238-33.583,2.515-2.589,5.137-4.226,8.736-4.5,1.292-.1,3.153-.426,3.7-1.306,2.7-4.331,5.039-8.883,7.207-12.813l-5.013-5.775c-3.57,1.981-6.851,4.055-10.348,5.662-2.814,1.293-4.32,3.1-4.405,6.2s-1.629,5.385-3.862,7.567c-11.66,11.394-23.161,22.95-34.757,34.41a13.649,13.649,0,0,1-2.79,1.634Z" transform="translate(-605.695 -24.039)" fill="#646262"/>
</svg>
