<svg xmlns="http://www.w3.org/2000/svg" width="24" height="24" viewBox="0 0 24 24">
  <g id="Group_7266" data-name="Group 7266" transform="translate(-973 -3826)">
    <circle id="Ellipse_559" data-name="Ellipse 559" cx="12" cy="12" r="12" transform="translate(973 3826)" fill="#c91019"/>
    <path id="Path_4620" data-name="Path 4620" d="M0,0C1.658,0,7.039.182,7.039.182V7.038" transform="translate(982.782 3832.995) rotate(45)" fill="none" stroke="#fff" stroke-width="2"/>
  </g>
</svg>
